Locality sensitive hashing for minhash — lsh • rOpenSci: textreuse
…
    minhash_generator, lsh_candidates,
 lsh_query, lsh_probability,
 lsh_threshold

    Examples

dir <- system.file("extdata/legal", package = "textreuse")
minhash <- minhash_generator(200, seed = 235)
corpus <- TextReuseCorpus(dir = dir,
                          tokenizer = tokenize_ngrams, n = 5,
                          minhash_func = minhash)
buckets <- lsh(corpus, bands = 50)
buckets

#> # A tibble: 150 x 2
#>    doc          buckets                         
#>    <chr>        <chr>                           
#>  1 ca1851-match 406a0764a40462225f9f95b2cb5b4c84
#>  2 ca1851-match 6318b23f27390ebc6275a26d507df2a7
#>  3 ca1851-match fd5712793508c073cdd66cb206822329
#>  4 ca1851-match 12d7c90918089994639147d0310af364
#>  5 ca1851-match 571c849aac89e5c6b1c887e11e2b52ed
#>  6 ca1851-match 031399ed57e52ee49d311c5f68d75913
#>  7 ca1851-match abb1b8dbdff3ce542a7b14ea9eeafed9
#>  8 ca1851-match 4b0c151ca3c07a368c202b56047329f5
#>  9 ca1851-match a641b666b88a8e7e7e9b616e7aa33e6b
#> 10 ca1851-match e257b874ed2397951baaebea378da311
#> # … with 140 more rows
…
