Minhash and locality-sensitive hashing • rOpenSci: textreuse
…
## [1] 0.7163087

lsh_probability(h = 240, b =  80, s = 0.75)

## [1] 1

These numbers seem reasonable for our purposes, so we will set the number of minhashes at 240 and the number of bands at 80.

Now we can use the lsh() function to calculate the locality-sensitive hashes for our documents.

buckets <- lsh(corpus, bands = 80, progress = FALSE)
buckets

## # A tibble: 640 x 2
##    doc                buckets                         
##    <chr>              <chr>                           
##  1 calltounconv00baxt e0bb34f7f8a72a14e59860a713ed729a
##  2 calltounconv00baxt 70132a5e0b215110467f21876046ba09
##  3 calltounconv00baxt 9e47ff1e666608f44780af4d2f951a95
##  4 calltounconv00baxt 9bcea45cbf5794bb1773a75d0618f9d8
##  5 calltounconv00baxt 97c34a2cdc7eac224764d56123ecb6c3
##  6 calltounconv00baxt 90ec7ada126a1e89460e7fcd29c793f3
##  7 calltounconv00baxt 04b23f1e5b91f8693b394dad8071921f
##  8 calltounconv00baxt f2601069c2901c436f7b09b16d37f821
##  9 calltounconv00baxt cebc1756ef66dfa0c8f31ddc68ffc4ff
## 10 calltounconv00baxt e2087f34faf8176f126e10ea5314fcb5
## # … with 630 more rows
…
